#,# = annotation,,,,,,
#,Layers ,Eta strips,Eta First FE,Phi Strips,Phi First FE,chs/connecter,
ChamberConfig,2,24,2,16,1,8,
#,,,,,,,
#,TDC start ch,TDC end ch,FE Number,Layer,PHI/ETA,Strip width[mm],Strip interval[mm]
SectionConfig,0,7,2,1,ETA,25,2
SectionConfig,8,15,3,1,ETA,25,2
SectionConfig,16,23,4,1,ETA,25,2
SectionConfig,24,31,2,0,ETA,25,2
#,32,39,,,,,
#,40,47,,,,,
#,48,55,,,,,
#,56,63,,,,,
SectionConfig,64,71,3,0,ETA,25,2
SectionConfig,72,79,4,0,ETA,25,2
SectionConfig,80,87,1,1,PHI,25,2
SectionConfig,88,95,2,1,PHI,25,2
SectionConfig,96,103,1,0,PHI,25,2
SectionConfig,104,111,2,0,PHI,25,2
#,112,119,,,,,
#,120,127,,,,,
#,TOP chamer,MID chamer,BOT chamer,,,,
#,Layer 0,Layer 1,Layer 2,,,,
ReferenceConfig,1,0,0,,,,
